COMPSCIX 415.2 Homework 5/Midterm
…
txhousing%>%count(city)%>%summarise(n=n())

## # A tibble: 1 x 1
##       n
##   <int>
## 1    46

Which city, month and year had the highest number of sales?
 A: Houston had max total sales. June was the month with nost sales. 2006 was the year with most sales.

txhousing%>%count(city,wt = sales)%>%arrange(desc(n))

## # A tibble: 46 x 2
##    city                    n
##    <chr>               <dbl>
##  1 Houston           1043999
##  2 Dallas             816122
##  3 Austin             373381
##  4 San Antonio        322097
##  5 Collin County      202892
##  6 Fort Bend          153088
##  7 Fort Worth         144791
##  8 NE Tarrant County  128007
##  9 Denton County      117405
## 10 Montgomery County  104589
## #  with 36 more rows
…
What proportion of sales is missing for each city?

txhousing%>%count(city,wt = is.na(sales)/n())%>%arrange(desc(n))

## # A tibble: 46 x 2
##    city                    n
##    <chr>               <dbl>
##  1 South Padre Island 0.620 
##  2 Kerrville          0.556 
##  3 Midland            0.401 
##  4 Odessa             0.385 
##  5 San Marcos         0.246 
##  6 Laredo             0.193 
##  7 Harlingen          0.134 
##  8 Waco               0.102 
##  9 Texarkana          0.0909
## 10 Brazoria County    0.0749
## #  with 36 more rows
Looking at only the cities and months with greater than 500 sales:

Are the distributions of the median sales price (column name median), when grouped by city, different? The same? Show your work.
 A: not sure about the meaning of this. I will skip :(

Any cities that stand out that youd want to investigate further?
 A: I think it could be intresting to look at low inventory time cities to understand why sales are so fast in them.

Why might we want to filter out all cities and months with sales less than 500?
 A: 500 is a large enough number to figure statistical trends. With lower numbers we may get more influance of extreme cases.

big_sales<-txhousing%>%filter(sales>500)
big_sales%>%arrange(inventory)

## # A tibble: 1,883 x 9
##    city           year month sales   volume median listings inventory  date
##    <chr>         <int> <int> <dbl>    <dbl>  <dbl>    <dbl>     <dbl> <dbl>
##  1 Collin County  2014    12  1235   3.81e8 272200     1788       1.3 2015.
##  2 Collin County  2015     1   776   2.42e8 268000     1780       1.3 2015 
##  3 Arlington      2015     5   526   1.13e8 179100      614       1.4 2015.
##  4 Collin County  2013    12  1126   3.21e8 251100     1892       1.4 2014.
##  5 Collin County  2015     2   938   3.01e8 283400     1817       1.4 2015.
##  6 Collin County  2015     3  1258   4.13e8 285800     1811       1.4 2015.
##  7 Denton County  2015     2   592   1.47e8 212500     1114       1.4 2015.
##  8 NE Tarrant C  2014    12   717   1.89e8 201300     1079       1.4 2015.
##  9 NE Tarrant C  2015     2   549   1.50e8 203400     1080       1.4 2015.
## 10 NE Tarrant C  2015     3   796   2.25e8 213300     1122       1.4 2015.
## #  with 1,873 more rows
