COMPSCIX 415.2 Homework 7
…
How would you interpret the coefficients on GrLivArea and OverallQual?

GrLivArea is the square fit of living space above ground. So for each square fit the price goes up by 55.56$. OverallQual is a scale of 1-10 for the level of finish of the house. Each grade up on this scale is about 20,951$

How would you interpret the coefficient on NeighborhoodBrkSide?

In this model House prices in this neighborhood are 13025.45 cheaper the other.

Are the features significant?

Yes, the p-value is low on most of them.

  tidy(diam_lm)

## # A tibble: 27 x 5
##    term                estimate std.error statistic  p.value
##    <chr>                  <dbl>     <dbl>     <dbl>    <dbl>
##  1 (Intercept)         -34829.   11541.       -3.02 2.59e- 3
##  2 GrLivArea               55.6      2.50     22.2  2.38e-94
##  3 OverallQual          20951.    1162.       18.0  1.24e-65
##  4 NeighborhoodBlueste -30753.   27697.       -1.11 2.67e- 1
##  5 NeighborhoodBrDale  -43359.   12979.       -3.34 8.57e- 4
##  6 NeighborhoodBrkSide -13025.   10450.       -1.25 2.13e- 1
##  7 NeighborhoodClearCr  24576.   11570.        2.12 3.38e- 2
##  8 NeighborhoodCollgCr  11414.    9497.        1.20 2.30e- 1
##  9 NeighborhoodCrawfor  14444.   10502.        1.38 1.69e- 1
## 10 NeighborhoodEdwards -17843.    9986.       -1.79 7.42e- 2
## #  with 17 more rows
…
